0 PVR 1 1
3 PVR 1 1 A 60 30 10
5 PVR 1 1 A 20220321 1200 1430 200 250 300 the_shawshank_redemption eng
5 PVR 1 1 A 20220321 1500 1730 200 250 300 the_shawshank_redemption eng
5 PVR 1 1 A 20220321 1800 2030 200 250 300 the_shawshank_redemption eng
5 PVR 1 1 A 20220321 2100 2330 200 250 300 the_shawshank_redemption eng
3 PVR 1 1 B 50 40 10
5 PVR 1 1 B 20220321 1200 1430 220 250 300 12_angry_men eng
5 PVR 1 1 B 20220321 1500 1730 250 250 300 12_angry_men eng
5 PVR 1 1 B 20220321 1800 2030 300 350 400 12_angry_men eng
5 PVR 1 1 B 20220321 2100 2330 400 500 600 12_angry_men eng
3 PVR 1 1 C 50 50 0
5 PVR 1 1 C 20220321 1200 1430 340 400 600 interstellar hindi
5 PVR 1 1 C 20220321 1500 1730 340 400 600 interstellar hindi
5 PVR 1 1 C 20220321 1800 2030 500 600 900 interstellar hindi
5 PVR 1 1 C 20220321 2100 2330 550 700 1000 interstellar hindi
0 PVR 2 1
3 PVR 2 1 A 60 25 15
5 PVR 2 1 A 20220321 1200 1430 370 400 430 saving_private_ryan english
5 PVR 2 1 A 20220321 1500 1730 370 390 420 forrest_gump hindi
5 PVR 2 1 A 20220321 1800 2030 400 475 500 forrest_gump hindi
5 PVR 2 1 A 20220321 2100 2330 450 550 650 saving_private_ryan hindi
3 PVR 2 1 B 50 45 5
5 PVR 2 1 B 20220321 1200 1430 249 269 345 the_shawshank_redemption eng
5 PVR 2 1 B 20220321 1500 1730 279 299 374 interstellar hindi
5 PVR 2 1 B 20220321 1800 2030 315 349 395 forrest_gump hindi
5 PVR 2 1 B 20220321 2100 2330 369 397 436 prometheus eng
3 PVR 2 1 C 50 49 1
5 PVR 2 1 C 20220321 1200 1430 249 269 345 se7en eng
5 PVR 2 1 C 20220321 1500 1730 200 250 300 avatar eng
5 PVR 2 1 C 20220321 1800 2030 315 349 395 se7en hindi
5 PVR 2 1 C 20220321 2100 2330 369 397 436 the_green_mile eng
0 PVR 1 2
3 PVR 1 2 A 60 30 10
5 PVR 1 2 A 20220321 1200 1430 198 234 251 interstellar hindi
5 PVR 1 2 A 20220321 1500 1730 205 246 278 avatar eng
5 PVR 1 2 A 20220321 1800 2030 224 298 323 prometheus hindi
5 PVR 1 2 A 20220321 2100 2330 253 304 332 saving_private_ryan eng
3 PVR 1 2 B 49 49 2
5 PVR 1 2 B 20220321 1200 1430 146 189 233 saving_private_ryan eng
5 PVR 1 2 B 20220321 1500 1730 198 242 277 prometheus eng
5 PVR 1 2 B 20220321 1800 2030 219 246 288 saving_private_ryan hindi
5 PVR 1 2 B 20220321 2100 2330 245 291 311 prometheus eng
0 INOX 1 3
3 INOX 1 3 A 60 30 10
5 INOX 1 3 A 20220321 1200 1430 200 250 300 avatar eng
5 INOX 1 3 A 20220321 1500 1730 200 250 300 prometheus eng
5 INOX 1 3 A 20220321 1800 2030 300 350 400 interstellar hindi
5 INOX 1 3 A 20220321 2100 2330 300 350 400 interstellar eng
3 INOX 1 3 B 0 50 50
5 INOX 1 3 B 20220321 1200 1430 190 225 289 prometheus eng
5 INOX 1 3 B 20220321 1500 1730 220 254 299 interstellar eng
5 INOX 1 3 B 20220321 1800 2030 240 278 342 prometheus hindi
5 INOX 1 3 B 20220321 2100 2330 287 321 398 interstellar eng
0 INOX 3 1
3 INOX 3 1 A 60 30 10
5 INOX 3 1 A 20220321 1800 2030 300 350 400 interstellar eng
3 INOX 3 1 B 30 30 40
5 INOX 3 1 B 20220321 1200 1430 229 245 287 12_angry_men eng
5 INOX 3 1 B 20220321 1800 2030 256 279 310 interstellar hindi
5 INOX 3 1 B 20220321 2100 2330 314 345 398 the_shawshank_redemption eng
3 INOX 3 1 C 70 20 10
5 INOX 3 1 C 20220321 1800 2030 300 350 400 interstellar eng
0 Cinepolis 2 -1
3 Cinepolis 2 -1 A 60 30 10
5 Cinepolis 2 -1 A 20220321 1200 1430 246 267 326 12_angry_men english
5 Cinepolis 2 -1 A 20220321 1500 1730 289 316 395 the_shawshank_redemption hindi
5 Cinepolis 2 -1 A 20220321 1800 2030 319 369 415 interstellar hindi
5 Cinepolis 2 -1 A 20220321 2100 2330 349 398 436 prometheus hindi
3 Cinepolis 2 -1 B 60 30 10
5 Cinepolis 2 -1 B 20220321 1200 1430 350 370 400 saving_private_ryan english
5 Cinepolis 2 -1 B 20220321 1500 1730 350 360 400 saving_private_ryan hindi
5 Cinepolis 2 -1 B 20220321 1800 2030 380 415 450 forrest_gump hindi
5 Cinepolis 2 -1 B 20220321 2100 2330 420 510 500 saving_private_ryan hindi
0 Cinepolis 2 -2
3 Cinepolis 2 -2 A 60 30 10
5 Cinepolis 2 -2 A 20220321 1200 1430 198 216 236 12_angry_men eng
5 Cinepolis 2 -2 A 20220321 1500 1730 216 234 249 apocalypse_now eng
5 Cinepolis 2 -2 A 20220321 1800 2030 236 259 289 interstellar hindi
5 Cinepolis 2 -2 A 20220321 2100 2330 259 289 307 memento hindi
3 Cinepolis 2 -2 B 60 30 10
5 Cinepolis 2 -2 B 20220321 1200 1430 190 250 300 the_shawshank_redemption eng
5 Cinepolis 2 -2 B 20220321 1500 1730 190 250 300 the_shawshank_redemption eng
5 Cinepolis 2 -2 B 20220321 1800 2030 300 350 400 interstellar hindi
5 Cinepolis 2 -2 B 20220321 2100 2330 350 400 450 interstellar hindi
0 Cinepolis -1 0
3 Cinepolis -1 0 A 60 30 10
5 Cinepolis -1 0 A 20220321 1200 1430 148 169 210 12_angry_men eng
5 Cinepolis -1 0 A 20220321 1500 1730 173 198 234 memento eng
5 Cinepolis -1 0 A 20220321 1800 2030 196 206 254 the_shawshank_redemption hindi
5 Cinepolis -1 0 A 20220321 2100 2330 216 239 290 memento hindi
3 Cinepolis -1 0 B 60 30 10
5 Cinepolis -1 0 B 20220321 1200 1430 157 181 227 interstellar eng
5 Cinepolis -1 0 B 20220321 1500 1730 166 186 234 apocalypse_now eng
5 Cinepolis -1 0 B 20220321 1800 2030 184 203 267 forrest_gump hindi
5 Cinepolis -1 0 B 20220321 2100 2330 191 242 301 memento hindi